characteristics report
…
characteristics report

Loading the data

Studies+samples+control by country

# A tibble: 24 × 5
   country number_of_samples number_of_studies number_of_control_groups
   <chr>               <int>             <int>                    <int>
 1 us                    161               256                      626
 2 gb                     42                52                      142
 3 au                     23                32                      102
 4 ca                     14                20                       55
 5 de                     12                16                       54
 6 nz                     10                11                       19
 7 pl                      5                 8                       34
 8 it                      3                 6                       15
 9 il                      4                 5                        8
10 <NA>                    2                 5                        8
# ℹ 14 more rows
# ℹ 1 more variable: number_of_effects <int>
…
Event materials

# A tibble: 1 × 1
      n
  <int>
1   324

Event medium

[1] 436

Exposure metod

# A tibble: 31 × 2
   exposure_method    n_number
   <chr>                 <int>
 1 Zaragoza_Lane_1994        2
 2 advertisment              2
 3 childrens_story           3
 4 composite                 4
 5 cowitness                23
 6 cowittness                1
 7 description               2
 8 eyewitness                1
 9 imagination               1
10 initial_test             12
# ℹ 21 more rows
…
